elvis@perlmutter:login10:~/checkpoint-restart/dmtcp/examples> sbatch perlmutter-cpu-dmtcp-restart.sh
Submitted batch job 11626406
elvis@perlmutter:login10:~/checkpoint-restart/dmtcp/examples> sqs
JOBID            ST USER      NAME          NODES TIME_LIMIT       TIME  SUBMIT_TIME          QOS             START_TIME           FEATURES       NODELIST(REASON
11626406         R  elvis     test_cr       1          10:00       4:02  2023-07-14T15:07:38  debug           2023-07-14T15:07:39  cpu            nid004912
elvis@perlmutter:login10:~/checkpoint-restart/dmtcp/examples> cat test_cr-11626406.out
step 11
Fri 14 Jul 2023 03:07:47 PM PDT
step 12
Fri 14 Jul 2023 03:08:48 PM PDT
step 13
Fri 14 Jul 2023 03:09:49 PM PDT
step 14
Fri 14 Jul 2023 03:10:50 PM PDT
step 15
Fri 14 Jul 2023 03:11:50 PM PDT
